\relax 
\providecommand\hyper@newdestlabel[2]{}
\providecommand\zref@newlabel[2]{}
\citation{scikit}
\citation{pedregosa2011scikit}
\@writefile{toc}{\contentsline {chapter}{\numberline {1}Introduzione}{2}{chapter.1}}
\@writefile{lof}{\addvspace {10\p@ }}
\@writefile{lot}{\addvspace {10\p@ }}
\@writefile{toc}{\contentsline {section}{\numberline {1.1}Il Progetto}{2}{section.1.1}}
\@writefile{toc}{\contentsline {paragraph}{}{2}{section*.2}}
\@writefile{toc}{\contentsline {paragraph}{}{2}{section*.3}}
\@writefile{toc}{\contentsline {section}{\numberline {1.2}Le specifiche}{2}{section.1.2}}
\@writefile{toc}{\contentsline {paragraph}{}{2}{section*.4}}
\@writefile{toc}{\contentsline {section}{\numberline {1.3}Una panoramica}{2}{section.1.3}}
\@writefile{toc}{\contentsline {paragraph}{}{2}{section*.5}}
\@writefile{toc}{\contentsline {subsection}{\numberline {1.3.1}Architettura}{2}{subsection.1.3.1}}
\@writefile{toc}{\contentsline {paragraph}{}{2}{section*.6}}
\@writefile{toc}{\contentsline {paragraph}{}{3}{section*.7}}
\@writefile{toc}{\contentsline {subsection}{\numberline {1.3.2}Gli scenari}{3}{subsection.1.3.2}}
\@writefile{toc}{\contentsline {paragraph}{}{3}{section*.8}}
\@writefile{toc}{\contentsline {paragraph}{}{3}{section*.9}}
\@writefile{toc}{\contentsline {section}{\numberline {1.4}Perch\IeC {\'e} gli \emph  {EEG}?}{3}{section.1.4}}
\@setckpt{01-introduction}{
\setcounter{page}{4}
\setcounter{equation}{0}
\setcounter{enumi}{0}
\setcounter{enumii}{0}
\setcounter{enumiii}{0}
\setcounter{enumiv}{0}
\setcounter{footnote}{0}
\setcounter{mpfootnote}{0}
\setcounter{part}{0}
\setcounter{chapter}{1}
\setcounter{section}{4}
\setcounter{subsection}{0}
\setcounter{subsubsection}{0}
\setcounter{paragraph}{0}
\setcounter{subparagraph}{0}
\setcounter{figure}{0}
\setcounter{table}{0}
\setcounter{lstnumber}{1}
\setcounter{Item}{0}
\setcounter{Hfootnote}{0}
\setcounter{bookmark@seq@number}{7}
\setcounter{mdf@globalstyle@cnt}{1}
\setcounter{mdfcountframes}{0}
\setcounter{mdf@env@i}{0}
\setcounter{mdf@env@ii}{0}
\setcounter{mdf@zref@counter}{0}
\setcounter{lstlisting}{0}
\setcounter{section@level}{1}
}
