\relax 
\providecommand\hyper@newdestlabel[2]{}
\providecommand\zref@newlabel[2]{}
\@writefile{toc}{\contentsline {chapter}{\numberline {2}Esecuzione}{4}{chapter.2}}
\@writefile{lof}{\addvspace {10\p@ }}
\@writefile{lot}{\addvspace {10\p@ }}
\@writefile{toc}{\contentsline {section}{\numberline {2.1}Utilizzo}{4}{section.2.1}}
\@writefile{toc}{\contentsline {paragraph}{}{4}{section*.10}}
\@writefile{lol}{\contentsline {lstlisting}{\numberline {2.1}start}{4}{lstlisting.2.1}}
\@writefile{toc}{\contentsline {paragraph}{}{4}{section*.11}}
\@writefile{toc}{\contentsline {section}{\numberline {2.2}Alcoholic}{4}{section.2.2}}
\@writefile{toc}{\contentsline {subsection}{\numberline {2.2.1}Dataset}{5}{subsection.2.2.1}}
\@writefile{toc}{\contentsline {subsection}{\numberline {2.2.2}Esecuzione}{5}{subsection.2.2.2}}
\newlabel{esecuzione_alc}{{2.2.2}{5}{Esecuzione}{subsection.2.2.2}{}}
\@writefile{toc}{\contentsline {subsection}{\numberline {2.2.3}output}{6}{subsection.2.2.3}}
\@writefile{toc}{\contentsline {section}{\numberline {2.3}Wrist}{6}{section.2.3}}
\@writefile{toc}{\contentsline {paragraph}{}{6}{section*.12}}
\@writefile{toc}{\contentsline {section}{\numberline {2.4}Modalit\IeC {\`a} unattended}{6}{section.2.4}}
\@writefile{toc}{\contentsline {paragraph}{}{7}{section*.13}}
\@writefile{lol}{\contentsline {lstlisting}{\numberline {2.2}run from sources}{7}{lstlisting.2.2}}
\@setckpt{02-usage}{
\setcounter{page}{8}
\setcounter{equation}{0}
\setcounter{enumi}{4}
\setcounter{enumii}{0}
\setcounter{enumiii}{0}
\setcounter{enumiv}{0}
\setcounter{footnote}{0}
\setcounter{mpfootnote}{0}
\setcounter{part}{0}
\setcounter{chapter}{2}
\setcounter{section}{4}
\setcounter{subsection}{0}
\setcounter{subsubsection}{0}
\setcounter{paragraph}{0}
\setcounter{subparagraph}{0}
\setcounter{figure}{0}
\setcounter{table}{0}
\setcounter{lstnumber}{20}
\setcounter{Item}{8}
\setcounter{Hfootnote}{0}
\setcounter{bookmark@seq@number}{15}
\setcounter{mdf@globalstyle@cnt}{1}
\setcounter{mdfcountframes}{0}
\setcounter{mdf@env@i}{0}
\setcounter{mdf@env@ii}{0}
\setcounter{mdf@zref@counter}{0}
\setcounter{lstlisting}{2}
\setcounter{section@level}{4}
}
