\relax 
\providecommand\hyper@newdestlabel[2]{}
\providecommand\zref@newlabel[2]{}
\citation{bay2000uci}
\citation{scikitExpl}
\@writefile{toc}{\contentsline {chapter}{\numberline {3}Dataset: Alcoholic}{8}{chapter.3}}
\@writefile{lof}{\addvspace {10\p@ }}
\@writefile{lot}{\addvspace {10\p@ }}
\@writefile{toc}{\contentsline {section}{\numberline {3.1}Interpretazione del dataset}{8}{section.3.1}}
\@writefile{toc}{\contentsline {paragraph}{}{8}{section*.14}}
\@writefile{toc}{\contentsline {paragraph}{}{8}{section*.15}}
\@writefile{toc}{\contentsline {section}{\numberline {3.2}Classificazione: un approccio bottom up}{9}{section.3.2}}
\@writefile{toc}{\contentsline {paragraph}{}{9}{section*.16}}
\@writefile{toc}{\contentsline {paragraph}{}{9}{section*.17}}
\@writefile{toc}{\contentsline {paragraph}{}{9}{section*.18}}
\@writefile{toc}{\contentsline {section}{\numberline {3.3}Il test}{9}{section.3.3}}
\@writefile{toc}{\contentsline {paragraph}{}{10}{section*.19}}
\@writefile{toc}{\contentsline {paragraph}{}{10}{section*.20}}
\@writefile{toc}{\contentsline {paragraph}{}{12}{section*.21}}
\@writefile{toc}{\contentsline {section}{\numberline {3.4}University of California, Irvine - Knowledge Discovery Database Archive}{12}{section.3.4}}
\newlabel{UCI}{{3.4}{12}{University of California, Irvine - Knowledge Discovery Database Archive}{section.3.4}{}}
\@writefile{toc}{\contentsline {paragraph}{}{12}{section*.22}}
\@setckpt{03-alcoholic}{
\setcounter{page}{13}
\setcounter{equation}{0}
\setcounter{enumi}{4}
\setcounter{enumii}{0}
\setcounter{enumiii}{0}
\setcounter{enumiv}{0}
\setcounter{footnote}{0}
\setcounter{mpfootnote}{0}
\setcounter{part}{0}
\setcounter{chapter}{3}
\setcounter{section}{4}
\setcounter{subsection}{0}
\setcounter{subsubsection}{0}
\setcounter{paragraph}{0}
\setcounter{subparagraph}{0}
\setcounter{figure}{0}
\setcounter{table}{0}
\setcounter{lstnumber}{20}
\setcounter{Item}{8}
\setcounter{Hfootnote}{0}
\setcounter{bookmark@seq@number}{20}
\setcounter{mdf@globalstyle@cnt}{1}
\setcounter{mdfcountframes}{0}
\setcounter{mdf@env@i}{0}
\setcounter{mdf@env@ii}{0}
\setcounter{mdf@zref@counter}{0}
\setcounter{lstlisting}{0}
\setcounter{section@level}{4}
}
