\relax 
\providecommand\hyper@newdestlabel[2]{}
\providecommand\zref@newlabel[2]{}
\citation{kasabov2014neucube}
\@writefile{toc}{\contentsline {chapter}{\numberline {4}Dataset: Wrist}{13}{chapter.4}}
\@writefile{lof}{\addvspace {10\p@ }}
\@writefile{lot}{\addvspace {10\p@ }}
\@writefile{toc}{\contentsline {section}{\numberline {4.1}Interpretazione del dataset}{13}{section.4.1}}
\@writefile{toc}{\contentsline {paragraph}{}{13}{section*.23}}
\@writefile{toc}{\contentsline {section}{\numberline {4.2}Risultati}{13}{section.4.2}}
\@writefile{toc}{\contentsline {paragraph}{}{14}{section*.24}}
\@setckpt{04-wrist}{
\setcounter{page}{17}
\setcounter{equation}{0}
\setcounter{enumi}{4}
\setcounter{enumii}{0}
\setcounter{enumiii}{0}
\setcounter{enumiv}{0}
\setcounter{footnote}{0}
\setcounter{mpfootnote}{0}
\setcounter{part}{0}
\setcounter{chapter}{4}
\setcounter{section}{2}
\setcounter{subsection}{0}
\setcounter{subsubsection}{0}
\setcounter{paragraph}{0}
\setcounter{subparagraph}{0}
\setcounter{figure}{0}
\setcounter{table}{0}
\setcounter{lstnumber}{20}
\setcounter{Item}{8}
\setcounter{Hfootnote}{0}
\setcounter{bookmark@seq@number}{23}
\setcounter{mdf@globalstyle@cnt}{1}
\setcounter{mdfcountframes}{0}
\setcounter{mdf@env@i}{0}
\setcounter{mdf@env@ii}{0}
\setcounter{mdf@zref@counter}{0}
\setcounter{lstlisting}{0}
\setcounter{section@level}{4}
}
