\relax 
\providecommand\hyper@newdestlabel[2]{}
\providecommand\zref@newlabel[2]{}
\providecommand\HyperFirstAtBeginDocument{\AtBeginDocument}
\HyperFirstAtBeginDocument{\ifx\hyper@anchor\@undefined
\global\let\oldcontentsline\contentsline
\gdef\contentsline#1#2#3#4{\oldcontentsline{#1}{#2}{#3}}
\global\let\oldnewlabel\newlabel
\gdef\newlabel#1#2{\newlabelxx{#1}#2}
\gdef\newlabelxx#1#2#3#4#5#6{\oldnewlabel{#1}{{#2}{#3}}}
\AtEndDocument{\ifx\hyper@anchor\@undefined
\let\contentsline\oldcontentsline
\let\newlabel\oldnewlabel
\fi}
\fi}
\global\let\hyper@last\relax 
\gdef\HyperFirstAtBeginDocument#1{#1}
\providecommand\HyField@AuxAddToFields[1]{}
\providecommand\HyField@AuxAddToCoFields[2]{}
\babel@aux{english}{}
\@input{01-introduction.aux}
\@input{02-usage.aux}
\@input{03-alcoholic.aux}
\@input{04-wrist.aux}
\@input{05-conclusions.aux}
\bibstyle{plain}
\bibdata{biblio}
\bibcite{bay2000uci}{1}
\bibcite{scikitExpl}{2}
\bibcite{scikit}{3}
\bibcite{kasabov2014neucube}{4}
\bibcite{pedregosa2011scikit}{5}
\@writefile{toc}{\contentsline {chapter}{Bibliography}{18}{section*.27}}
